Removed Pin From Net: NetName=GND Pin=D2-26
Removed Pin From Net: NetName=GND Pin=D2-27
Removed Pin From Net: NetName=GND Pin=D2-28
Removed Pin From Net: NetName=GND Pin=D2-29
Removed Pin From Net: NetName=GND Pin=D2-30
Removed Pin From Net: NetName=GND Pin=D2-31
Removed Pin From Net: NetName=GND Pin=D2-32
Removed Pin From Net: NetName=GND Pin=D2-33
Removed Pin From Net: NetName=GND Pin=D12-9
