Removed Pin From Net: NetName=BAT Pin=P2-1
Removed Pin From Net: NetName=GND Pin=P2-2
Change Component Footprint: Designator=P2 Old Footprint=HDR1X2 New Footprint=HDR1X3
Added Pin To Net: NetName=GND Pin=P2-1
Added Pin To Net: NetName=BAT_T Pin=P2-2
Added Pin To Net: NetName=BAT Pin=P2-3
