Added Component: Designator=D?(D0402(1006))
Add component. Clean all parameters for all variants
Added Component: Designator=R?(R0402)
Add component. Clean all parameters for all variants
Added Component: Designator=SB?(SB)
Add component. Clean all parameters for all variants
Added Component: Designator=SB?(SB)
Add component. Clean all parameters for all variants
Added Component: Designator=SB?(SB)
Add component. Clean all parameters for all variants
Added Component: Designator=SB?(SB)
Add component. Clean all parameters for all variants
Added Pin To Net: NetName=5v Pin=R?-2
Added Pin To Net: NetName=5v Pin=SB?-1
Added Pin To Net: NetName=5v Pin=SB?-1
Added Pin To Net: NetName=GND Pin=SB?-1
Added Pin To Net: NetName=GND Pin=SB?-1
Added Pin To Net: NetName=NetD2_7 Pin=D2-7
Added Pin To Net: NetName=NetD2_7 Pin=D?-1
Added Net: Name=NetD2_7
Added Pin To Net: NetName=NetD2_10 Pin=D2-10
Added Pin To Net: NetName=NetD2_10 Pin=SB?-2
Added Pin To Net: NetName=NetD2_10 Pin=SB?-2
Added Net: Name=NetD2_10
Added Pin To Net: NetName=NetD2_11 Pin=D2-11
Added Pin To Net: NetName=NetD2_11 Pin=SB?-2
Added Pin To Net: NetName=NetD2_11 Pin=SB?-2
Added Net: Name=NetD2_11
Added Pin To Net: NetName=NetD?_2 Pin=D?-2
Added Pin To Net: NetName=NetD?_2 Pin=R?-1
Added Net: Name=NetD?_2
Added Member To Class: ClassName=UBT Member=Component D? SML-P11MTT86
Added Member To Class: ClassName=UBT Member=Component R? 3k1
Added Member To Class: ClassName=UBT Member=Component SB? SB
Added Member To Class: ClassName=UBT Member=Component SB? SB
Added Member To Class: ClassName=UBT Member=Component SB? SB
Added Member To Class: ClassName=UBT Member=Component SB? SB
