Removed Pin From Net: NetName=SPI1_SCK Pin=P4-1
Removed Pin From Net: NetName=WKUP5 Pin=P5-1
Removed Pin From Net: NetName=TSC_G4_IO1 Pin=P5-4
Added Pin To Net: NetName=TSC_G4_IO1 Pin=P5-1
Added Pin To Net: NetName=SPI1_SCK Pin=P5-3
Added Pin To Net: NetName=WKUP5 Pin=P5-4
