Removed Pin From Net: NetName=GND Pin=D2-25
Added Component: Designator=J2(Antenna_2.4Ghz)
Added Pin To Net: NetName=NetC57_2 Pin=J2-1
Added Member To Class: ClassName=UBT Member=Component J2 Antenna_2.4Ghz
