Removed Pin From Net: NetName=RTC_OUT Pin=D1-27
Removed Pin From Net: NetName=TSC_G4_IO1 Pin=D1-50
Removed Pin From Net: NetName=GND Pin=D12-9
Removed Pin From Net: NetName=RTC_OUT Pin=P4-5
Added Pin To Net: NetName=RTC_OUT Pin=D1-50
Change Net Name : Old Net Name=RTC_OUT New Net Name=VDD_MICRO
Added Pin To Net: NetName=RTC_OUT Pin=D1-27
Added Pin To Net: NetName=RTC_OUT Pin=P4-5
Added Net: Name=RTC_OUT
Added Member To Class: ClassName=UBT Member=Component SB16 SB
