Removed Pin From Net: NetName=GND Pin=D6-17
Removed Pin From Net: NetName=BAT_T Pin=P2-2
Removed Pin From Net: NetName=BAT Pin=P2-3
Added Pin To Net: NetName=BAT Pin=P2-2
Added Pin To Net: NetName=BAT_T Pin=P2-3
