Change Component Designator: OldDesignator=D4 NewDesignator=D6
Change Component Designator: OldDesignator=D6 NewDesignator=D5
Change Component Designator: OldDesignator=D7 NewDesignator=D8
Change Component Designator: OldDesignator=D8 NewDesignator=D7
Added Component: Designator=C1(C0402)
Add component. Clean all parameters for all variants
Added Pin To Net: NetName=GND Pin=C1-1
Change Net Name : Old Net Name=NetD7_9 New Net Name=NetD8_9
Added Pin To Net: NetName=GSM_1v8 Pin=D8-40
Added Net: Name=GSM_1v8
Added Pin To Net: NetName=GSM_RI Pin=D8-7
Added Net: Name=GSM_RI
Added Pin To Net: NetName=GSM_RX Pin=D8-2
Added Net: Name=GSM_RX
Added Pin To Net: NetName=GSM_TX Pin=D8-1
Added Net: Name=GSM_TX
Added Pin To Net: NetName=NetC1_2 Pin=C1-2
Added Pin To Net: NetName=NetC1_2 Pin=D8-39
Added Net: Name=NetC1_2
Added Member To Class: ClassName=UBT Member=Component C1 C
Added Member To Class: ClassName=UBT Member=Component D6 NTS0304EPW
